Shipwrecks Network in the Mediterranean Basin
…
Sea Areas

The shipwrecks dataset has geographical information to produce networks of relations with possible trajectories of the Roman ships. These variables are the Sea area of the shipwreck together with the network data in Place of origin and Place of destination that are columns 5, 20 and 21 in object sw.

# geographic variables
sw[ ,c(5,20:21)]

# A tibble: 1,784 x 3
   `Sea area`            `Place of origin` `Place of destination`
   <chr>                 <chr>             <chr>                 
 1 Adriatic              Egypt             Northern Italy        
 2 Adriatic              Cos               Northern Italy        
 3 Adriatic              Rhodes            Northern Italy        
 4 Adriatic              Aegean            Northern Italy        
 5 Adriatic              <NA>              <NA>                  
 6 Adriatic              Rhodes            northern Italy        
 7 Adriatic              Aegean            Northern Italy        
 8 Western Mediterranean Aegean via Cosa   France                
 9 Tyrrhenian Sea        Aegean.           Rome                  
10 Adriatic              Aegean            Northern Italy        
# ... with 1,774 more rows
…
